﻿code;Id;Piece_number;Status;Date;label;"Account label";way;amount;currency_iso_code
VT;702405;FAC-001;Réalisé;2017-01-04;"CLIENT DIVERS (CLI-001) - FAC-001";"CLI-001  ( Client Divers )";debit;600;EUR
VT;702405;FAC-001;Réalisé;2017-01-04;"CLIENT DIVERS (CLI-001) - FAC-001";"706500  ( PRESTATIONS DE SERVICES 20% )";credit;500;EUR
VT;702405;FAC-001;Réalisé;2017-01-04;"CLIENT DIVERS (CLI-001) - FAC-001";"445722  ( TVA COLLECTEE ENC. 20% )";credit;100;EUR
VT;702406;FAC-001;Réalisé;2017-01-04;"CLIENT DIVERS (CLI-001) - FAC-001";"CLI-001  ( Client Divers )";debit;600;EUR
VT;702406;FAC-001;Réalisé;2017-01-04;"CLIENT DIVERS (CLI-001) - FAC-001";"706500  ( PRESTATIONS DE SERVICES 20% )";credit;500;EUR
VT;702406;FAC-001;Réalisé;2017-01-04;"CLIENT DIVERS (CLI-001) - FAC-001";"445722  ( TVA COLLECTEE ENC. 20% )";credit;100;EUR
VT;702407;FAC-001;Réalisé;2017-01-04;"CLIENT DIVERS (CLI-001) - FAC-001";"CLI-001  ( Client Divers )";debit;600;EUR
VT;702407;FAC-001;Réalisé;2017-01-04;"CLIENT DIVERS (CLI-001) - FAC-001";"706500  ( PRESTATIONS DE SERVICES 20% )";credit;500;EUR
VT;702407;FAC-001;Réalisé;2017-01-04;"CLIENT DIVERS (CLI-001) - FAC-001";"445722  ( TVA COLLECTEE ENC. 20% )";credit;100;EUR
CA;702408;ENC-001;Réalisé;2017-01-04;"Règlement - CLIENT DIVERS - FAC-001 - ENC-001";"511000  ( Valeurs à l'encaissement diverses )";debit;600;EUR
CA;702408;ENC-001;Réalisé;2017-01-04;"Règlement - CLIENT DIVERS - FAC-001 - ENC-001";"CLI-001  ( Client Divers )";credit;600;EUR
VT;702409;FAC-001;Réalisé;2017-01-04;"CLIENT DIVERS (CLI-001) - FAC-001";"CLI-001  ( Client Divers )";debit;600;EUR
VT;702409;FAC-001;Réalisé;2017-01-04;"CLIENT DIVERS (CLI-001) - FAC-001";"706500  ( PRESTATIONS DE SERVICES 20% )";credit;500;EUR
VT;702409;FAC-001;Réalisé;2017-01-04;"CLIENT DIVERS (CLI-001) - FAC-001";"445722  ( TVA COLLECTEE ENC. 20% )";credit;100;EUR
CA;702410;ENC-001;Réalisé;2017-01-04;"Règlement - CLIENT DIVERS - FAC-001 - ENC-001";"511000  ( Valeurs à l'encaissement diverses )";debit;600;EUR
CA;702410;ENC-001;Réalisé;2017-01-04;"Règlement - CLIENT DIVERS - FAC-001 - ENC-001";"CLI-001  ( Client Divers )";credit;600;EUR
VT;702411;FAC-001;Réalisé;2017-01-04;"CLIENT DIVERS (CLI-001) - FAC-001";"CLI-001  ( Client Divers )";debit;600;EUR
VT;702411;FAC-001;Réalisé;2017-01-04;"CLIENT DIVERS (CLI-001) - FAC-001";"706500  ( PRESTATIONS DE SERVICES 20% )";credit;500;EUR
VT;702411;FAC-001;Réalisé;2017-01-04;"CLIENT DIVERS (CLI-001) - FAC-001";"445722  ( TVA COLLECTEE ENC. 20% )";credit;100;EUR
CA;702412;ENC-001;Réalisé;2017-01-04;"Règlement - CLIENT DIVERS - FAC-001 - ENC-001";"511000  ( Valeurs à l'encaissement diverses )";debit;600;EUR
CA;702412;ENC-001;Réalisé;2017-01-04;"Règlement - CLIENT DIVERS - FAC-001 - ENC-001";"CLI-001  ( Client Divers )";credit;600;EUR
